\relax 
\providecommand\hyper@newdestlabel[2]{}
\@writefile{toc}{\contentsline {section}{\numberline {6.2}Ficheiros}{14}{section.6.2}}
\newlabel{group___ficheiros___package}{{6.2}{14}{Ficheiros}{section.6.2}{}}
\newlabel{group___ficheiros___package_ga4133db3c574d9ebbd45e49f8c7c8bcce}{{6.2}{14}{Macros}{section*.6}{}}
\newlabel{group___ficheiros___package_ga320ed5c8215af65160e4ef13274f18f2}{{6.2}{14}{Macros}{section*.6}{}}
\@writefile{toc}{\contentsline {subsection}{\numberline {6.2.1}Detailed Description}{14}{subsection.6.2.1}}
\@setckpt{group___ficheiros___package}{
\setcounter{page}{15}
\setcounter{equation}{0}
\setcounter{enumi}{0}
\setcounter{enumii}{0}
\setcounter{enumiii}{0}
\setcounter{enumiv}{0}
\setcounter{footnote}{0}
\setcounter{mpfootnote}{0}
\setcounter{part}{0}
\setcounter{chapter}{6}
\setcounter{section}{2}
\setcounter{subsection}{1}
\setcounter{subsubsection}{0}
\setcounter{paragraph}{0}
\setcounter{subparagraph}{0}
\setcounter{figure}{0}
\setcounter{table}{0}
\setcounter{float@type}{4}
\setcounter{LT@tables}{0}
\setcounter{LT@chunks}{0}
\setcounter{NAT@ctr}{0}
\setcounter{lofdepth}{1}
\setcounter{lotdepth}{1}
\setcounter{Item}{0}
\setcounter{Hfootnote}{0}
\setcounter{bookmark@seq@number}{21}
\setcounter{ContinuedFloat}{0}
\setcounter{section@level}{2}
}
