\contentsline {chapter}{\numberline {1}Main page}{1}{chapter.1}
\contentsline {section}{\numberline {1.1}Introduction}{1}{section.1.1}
\contentsline {section}{\numberline {1.2}The manual}{1}{section.1.2}
\contentsline {section}{\numberline {1.3}Projects}{1}{section.1.3}
\contentsline {section}{\numberline {1.4}Software Architecture}{1}{section.1.4}
\contentsline {subsection}{\numberline {1.4.1}G\discretionary {\unhbox \voidb@x \hbox {\relax \fontsize {7}{8}\selectfont $\leftarrow \joinrel \rhook $}}{}{}UI}{2}{subsection.1.4.1}
\contentsline {subsection}{\numberline {1.4.2}Gest\IeC {\~a}o}{2}{subsection.1.4.2}
\contentsline {subsection}{\numberline {1.4.3}Ficheiros}{3}{subsection.1.4.3}
\contentsline {chapter}{\numberline {2}Module Index}{5}{chapter.2}
\contentsline {section}{\numberline {2.1}Modules}{5}{section.2.1}
\contentsline {chapter}{\numberline {3}Hierarchical Index}{7}{chapter.3}
\contentsline {section}{\numberline {3.1}Class Hierarchy}{7}{section.3.1}
\contentsline {chapter}{\numberline {4}Class Index}{9}{chapter.4}
\contentsline {section}{\numberline {4.1}Class List}{9}{section.4.1}
\contentsline {chapter}{\numberline {5}File Index}{11}{chapter.5}
\contentsline {section}{\numberline {5.1}File List}{11}{section.5.1}
\contentsline {chapter}{\numberline {6}Module Documentation}{13}{chapter.6}
\contentsline {section}{\numberline {6.1}Gest\IeC {\~a}o}{13}{section.6.1}
\contentsline {subsection}{\numberline {6.1.1}Detailed Description}{13}{subsection.6.1.1}
\contentsline {section}{\numberline {6.2}Ficheiros}{14}{section.6.2}
\contentsline {subsection}{\numberline {6.2.1}Detailed Description}{14}{subsection.6.2.1}
\contentsline {chapter}{\numberline {7}Class Documentation}{15}{chapter.7}
\contentsline {section}{\numberline {7.1}c\discretionary {\unhbox \voidb@x \hbox {\relax \fontsize {7}{8}\selectfont $\leftarrow \joinrel \rhook $}}{}{}\_\discretionary {\unhbox \voidb@x \hbox {\relax \fontsize {7}{8}\selectfont $\leftarrow \joinrel \rhook $}}{}{}date Class Reference}{15}{section.7.1}
\contentsline {subsection}{\numberline {7.1.1}Member Function Documentation}{15}{subsection.7.1.1}
\contentsline {subsubsection}{\numberline {7.1.1.1}operator=()}{15}{subsubsection.7.1.1.1}
\contentsline {section}{\numberline {7.2}c\discretionary {\unhbox \voidb@x \hbox {\relax \fontsize {7}{8}\selectfont $\leftarrow \joinrel \rhook $}}{}{}\_\discretionary {\unhbox \voidb@x \hbox {\relax \fontsize {7}{8}\selectfont $\leftarrow \joinrel \rhook $}}{}{}dialogo\discretionary {\unhbox \voidb@x \hbox {\relax \fontsize {7}{8}\selectfont $\leftarrow \joinrel \rhook $}}{}{}Criacao Class Reference}{16}{section.7.2}
\contentsline {section}{\numberline {7.3}c\discretionary {\unhbox \voidb@x \hbox {\relax \fontsize {7}{8}\selectfont $\leftarrow \joinrel \rhook $}}{}{}\_\discretionary {\unhbox \voidb@x \hbox {\relax \fontsize {7}{8}\selectfont $\leftarrow \joinrel \rhook $}}{}{}file Class Reference}{17}{section.7.3}
\contentsline {subsection}{\numberline {7.3.1}Member Function Documentation}{17}{subsection.7.3.1}
\contentsline {subsubsection}{\numberline {7.3.1.1}change\discretionary {\unhbox \voidb@x \hbox {\relax \fontsize {7}{8}\selectfont $\leftarrow \joinrel \rhook $}}{}{}Folder\discretionary {\unhbox \voidb@x \hbox {\relax \fontsize {7}{8}\selectfont $\leftarrow \joinrel \rhook $}}{}{}Name()}{17}{subsubsection.7.3.1.1}
\contentsline {subsubsection}{\numberline {7.3.1.2}convert\discretionary {\unhbox \voidb@x \hbox {\relax \fontsize {7}{8}\selectfont $\leftarrow \joinrel \rhook $}}{}{}String()}{18}{subsubsection.7.3.1.2}
\contentsline {subsubsection}{\numberline {7.3.1.3}create\discretionary {\unhbox \voidb@x \hbox {\relax \fontsize {7}{8}\selectfont $\leftarrow \joinrel \rhook $}}{}{}File()}{18}{subsubsection.7.3.1.3}
\contentsline {subsubsection}{\numberline {7.3.1.4}create\discretionary {\unhbox \voidb@x \hbox {\relax \fontsize {7}{8}\selectfont $\leftarrow \joinrel \rhook $}}{}{}Folder()}{19}{subsubsection.7.3.1.4}
\contentsline {subsubsection}{\numberline {7.3.1.5}load\discretionary {\unhbox \voidb@x \hbox {\relax \fontsize {7}{8}\selectfont $\leftarrow \joinrel \rhook $}}{}{}List()\hspace {0.1cm}{\relax \fontsize {8}{9.5}\selectfont \abovedisplayskip 6\p@ plus2\p@ minus4\p@ \abovedisplayshortskip \z@ plus\p@ \belowdisplayshortskip 3\p@ plus\p@ minus2\p@ \def \leftmargin \leftmargini \parsep 4\p@ plus2\p@ minus\p@ \topsep 8\p@ plus2\p@ minus4\p@ \itemsep 4\p@ plus2\p@ minus\p@ {\leftmargin \leftmargini \topsep 3\p@ plus\p@ minus\p@ \parsep 2\p@ plus\p@ minus\p@ \itemsep \parsep }\belowdisplayskip \abovedisplayskip \ttfamily [1/5]}}{19}{subsubsection.7.3.1.5}
\contentsline {subsubsection}{\numberline {7.3.1.6}load\discretionary {\unhbox \voidb@x \hbox {\relax \fontsize {7}{8}\selectfont $\leftarrow \joinrel \rhook $}}{}{}List()\hspace {0.1cm}{\relax \fontsize {8}{9.5}\selectfont \abovedisplayskip 6\p@ plus2\p@ minus4\p@ \abovedisplayshortskip \z@ plus\p@ \belowdisplayshortskip 3\p@ plus\p@ minus2\p@ \def \leftmargin \leftmargini \parsep 4\p@ plus2\p@ minus\p@ \topsep 8\p@ plus2\p@ minus4\p@ \itemsep 4\p@ plus2\p@ minus\p@ {\leftmargin \leftmargini \topsep 3\p@ plus\p@ minus\p@ \parsep 2\p@ plus\p@ minus\p@ \itemsep \parsep }\belowdisplayskip \abovedisplayskip \ttfamily [2/5]}}{20}{subsubsection.7.3.1.6}
\contentsline {subsubsection}{\numberline {7.3.1.7}load\discretionary {\unhbox \voidb@x \hbox {\relax \fontsize {7}{8}\selectfont $\leftarrow \joinrel \rhook $}}{}{}List()\hspace {0.1cm}{\relax \fontsize {8}{9.5}\selectfont \abovedisplayskip 6\p@ plus2\p@ minus4\p@ \abovedisplayshortskip \z@ plus\p@ \belowdisplayshortskip 3\p@ plus\p@ minus2\p@ \def \leftmargin \leftmargini \parsep 4\p@ plus2\p@ minus\p@ \topsep 8\p@ plus2\p@ minus4\p@ \itemsep 4\p@ plus2\p@ minus\p@ {\leftmargin \leftmargini \topsep 3\p@ plus\p@ minus\p@ \parsep 2\p@ plus\p@ minus\p@ \itemsep \parsep }\belowdisplayskip \abovedisplayskip \ttfamily [3/5]}}{20}{subsubsection.7.3.1.7}
\contentsline {subsubsection}{\numberline {7.3.1.8}load\discretionary {\unhbox \voidb@x \hbox {\relax \fontsize {7}{8}\selectfont $\leftarrow \joinrel \rhook $}}{}{}List()\hspace {0.1cm}{\relax \fontsize {8}{9.5}\selectfont \abovedisplayskip 6\p@ plus2\p@ minus4\p@ \abovedisplayshortskip \z@ plus\p@ \belowdisplayshortskip 3\p@ plus\p@ minus2\p@ \def \leftmargin \leftmargini \parsep 4\p@ plus2\p@ minus\p@ \topsep 8\p@ plus2\p@ minus4\p@ \itemsep 4\p@ plus2\p@ minus\p@ {\leftmargin \leftmargini \topsep 3\p@ plus\p@ minus\p@ \parsep 2\p@ plus\p@ minus\p@ \itemsep \parsep }\belowdisplayskip \abovedisplayskip \ttfamily [4/5]}}{21}{subsubsection.7.3.1.8}
\contentsline {subsubsection}{\numberline {7.3.1.9}load\discretionary {\unhbox \voidb@x \hbox {\relax \fontsize {7}{8}\selectfont $\leftarrow \joinrel \rhook $}}{}{}List()\hspace {0.1cm}{\relax \fontsize {8}{9.5}\selectfont \abovedisplayskip 6\p@ plus2\p@ minus4\p@ \abovedisplayshortskip \z@ plus\p@ \belowdisplayshortskip 3\p@ plus\p@ minus2\p@ \def \leftmargin \leftmargini \parsep 4\p@ plus2\p@ minus\p@ \topsep 8\p@ plus2\p@ minus4\p@ \itemsep 4\p@ plus2\p@ minus\p@ {\leftmargin \leftmargini \topsep 3\p@ plus\p@ minus\p@ \parsep 2\p@ plus\p@ minus\p@ \itemsep \parsep }\belowdisplayskip \abovedisplayskip \ttfamily [5/5]}}{21}{subsubsection.7.3.1.9}
\contentsline {subsubsection}{\numberline {7.3.1.10}remove\discretionary {\unhbox \voidb@x \hbox {\relax \fontsize {7}{8}\selectfont $\leftarrow \joinrel \rhook $}}{}{}Folder()}{21}{subsubsection.7.3.1.10}
\contentsline {subsubsection}{\numberline {7.3.1.11}save\discretionary {\unhbox \voidb@x \hbox {\relax \fontsize {7}{8}\selectfont $\leftarrow \joinrel \rhook $}}{}{}List()\hspace {0.1cm}{\relax \fontsize {8}{9.5}\selectfont \abovedisplayskip 6\p@ plus2\p@ minus4\p@ \abovedisplayshortskip \z@ plus\p@ \belowdisplayshortskip 3\p@ plus\p@ minus2\p@ \def \leftmargin \leftmargini \parsep 4\p@ plus2\p@ minus\p@ \topsep 8\p@ plus2\p@ minus4\p@ \itemsep 4\p@ plus2\p@ minus\p@ {\leftmargin \leftmargini \topsep 3\p@ plus\p@ minus\p@ \parsep 2\p@ plus\p@ minus\p@ \itemsep \parsep }\belowdisplayskip \abovedisplayskip \ttfamily [1/4]}}{22}{subsubsection.7.3.1.11}
\contentsline {subsubsection}{\numberline {7.3.1.12}save\discretionary {\unhbox \voidb@x \hbox {\relax \fontsize {7}{8}\selectfont $\leftarrow \joinrel \rhook $}}{}{}List()\hspace {0.1cm}{\relax \fontsize {8}{9.5}\selectfont \abovedisplayskip 6\p@ plus2\p@ minus4\p@ \abovedisplayshortskip \z@ plus\p@ \belowdisplayshortskip 3\p@ plus\p@ minus2\p@ \def \leftmargin \leftmargini \parsep 4\p@ plus2\p@ minus\p@ \topsep 8\p@ plus2\p@ minus4\p@ \itemsep 4\p@ plus2\p@ minus\p@ {\leftmargin \leftmargini \topsep 3\p@ plus\p@ minus\p@ \parsep 2\p@ plus\p@ minus\p@ \itemsep \parsep }\belowdisplayskip \abovedisplayskip \ttfamily [2/4]}}{22}{subsubsection.7.3.1.12}
\contentsline {subsubsection}{\numberline {7.3.1.13}save\discretionary {\unhbox \voidb@x \hbox {\relax \fontsize {7}{8}\selectfont $\leftarrow \joinrel \rhook $}}{}{}List()\hspace {0.1cm}{\relax \fontsize {8}{9.5}\selectfont \abovedisplayskip 6\p@ plus2\p@ minus4\p@ \abovedisplayshortskip \z@ plus\p@ \belowdisplayshortskip 3\p@ plus\p@ minus2\p@ \def \leftmargin \leftmargini \parsep 4\p@ plus2\p@ minus\p@ \topsep 8\p@ plus2\p@ minus4\p@ \itemsep 4\p@ plus2\p@ minus\p@ {\leftmargin \leftmargini \topsep 3\p@ plus\p@ minus\p@ \parsep 2\p@ plus\p@ minus\p@ \itemsep \parsep }\belowdisplayskip \abovedisplayskip \ttfamily [3/4]}}{22}{subsubsection.7.3.1.13}
\contentsline {subsubsection}{\numberline {7.3.1.14}save\discretionary {\unhbox \voidb@x \hbox {\relax \fontsize {7}{8}\selectfont $\leftarrow \joinrel \rhook $}}{}{}List()\hspace {0.1cm}{\relax \fontsize {8}{9.5}\selectfont \abovedisplayskip 6\p@ plus2\p@ minus4\p@ \abovedisplayshortskip \z@ plus\p@ \belowdisplayshortskip 3\p@ plus\p@ minus2\p@ \def \leftmargin \leftmargini \parsep 4\p@ plus2\p@ minus\p@ \topsep 8\p@ plus2\p@ minus4\p@ \itemsep 4\p@ plus2\p@ minus\p@ {\leftmargin \leftmargini \topsep 3\p@ plus\p@ minus\p@ \parsep 2\p@ plus\p@ minus\p@ \itemsep \parsep }\belowdisplayskip \abovedisplayskip \ttfamily [4/4]}}{23}{subsubsection.7.3.1.14}
\contentsline {section}{\numberline {7.4}c\discretionary {\unhbox \voidb@x \hbox {\relax \fontsize {7}{8}\selectfont $\leftarrow \joinrel \rhook $}}{}{}\_\discretionary {\unhbox \voidb@x \hbox {\relax \fontsize {7}{8}\selectfont $\leftarrow \joinrel \rhook $}}{}{}list\discretionary {\unhbox \voidb@x \hbox {\relax \fontsize {7}{8}\selectfont $\leftarrow \joinrel \rhook $}}{}{}Album Class Reference}{23}{section.7.4}
\contentsline {subsection}{\numberline {7.4.1}Member Function Documentation}{24}{subsection.7.4.1}
\contentsline {subsubsection}{\numberline {7.4.1.1}add()}{24}{subsubsection.7.4.1.1}
\contentsline {subsubsection}{\numberline {7.4.1.2}create()}{24}{subsubsection.7.4.1.2}
\contentsline {subsubsection}{\numberline {7.4.1.3}debug\discretionary {\unhbox \voidb@x \hbox {\relax \fontsize {7}{8}\selectfont $\leftarrow \joinrel \rhook $}}{}{}Print()}{25}{subsubsection.7.4.1.3}
\contentsline {subsubsection}{\numberline {7.4.1.4}get\discretionary {\unhbox \voidb@x \hbox {\relax \fontsize {7}{8}\selectfont $\leftarrow \joinrel \rhook $}}{}{}Album()\hspace {0.1cm}{\relax \fontsize {8}{9.5}\selectfont \abovedisplayskip 6\p@ plus2\p@ minus4\p@ \abovedisplayshortskip \z@ plus\p@ \belowdisplayshortskip 3\p@ plus\p@ minus2\p@ \def \leftmargin \leftmargini \parsep 4\p@ plus2\p@ minus\p@ \topsep 8\p@ plus2\p@ minus4\p@ \itemsep 4\p@ plus2\p@ minus\p@ {\leftmargin \leftmargini \topsep 3\p@ plus\p@ minus\p@ \parsep 2\p@ plus\p@ minus\p@ \itemsep \parsep }\belowdisplayskip \abovedisplayskip \ttfamily [1/2]}}{25}{subsubsection.7.4.1.4}
\contentsline {subsubsection}{\numberline {7.4.1.5}get\discretionary {\unhbox \voidb@x \hbox {\relax \fontsize {7}{8}\selectfont $\leftarrow \joinrel \rhook $}}{}{}Album()\hspace {0.1cm}{\relax \fontsize {8}{9.5}\selectfont \abovedisplayskip 6\p@ plus2\p@ minus4\p@ \abovedisplayshortskip \z@ plus\p@ \belowdisplayshortskip 3\p@ plus\p@ minus2\p@ \def \leftmargin \leftmargini \parsep 4\p@ plus2\p@ minus\p@ \topsep 8\p@ plus2\p@ minus4\p@ \itemsep 4\p@ plus2\p@ minus\p@ {\leftmargin \leftmargini \topsep 3\p@ plus\p@ minus\p@ \parsep 2\p@ plus\p@ minus\p@ \itemsep \parsep }\belowdisplayskip \abovedisplayskip \ttfamily [2/2]}}{25}{subsubsection.7.4.1.5}
\contentsline {subsubsection}{\numberline {7.4.1.6}get\discretionary {\unhbox \voidb@x \hbox {\relax \fontsize {7}{8}\selectfont $\leftarrow \joinrel \rhook $}}{}{}Error()\hspace {0.1cm}{\relax \fontsize {8}{9.5}\selectfont \abovedisplayskip 6\p@ plus2\p@ minus4\p@ \abovedisplayshortskip \z@ plus\p@ \belowdisplayshortskip 3\p@ plus\p@ minus2\p@ \def \leftmargin \leftmargini \parsep 4\p@ plus2\p@ minus\p@ \topsep 8\p@ plus2\p@ minus4\p@ \itemsep 4\p@ plus2\p@ minus\p@ {\leftmargin \leftmargini \topsep 3\p@ plus\p@ minus\p@ \parsep 2\p@ plus\p@ minus\p@ \itemsep \parsep }\belowdisplayskip \abovedisplayskip \ttfamily [1/2]}}{25}{subsubsection.7.4.1.6}
\contentsline {subsubsection}{\numberline {7.4.1.7}get\discretionary {\unhbox \voidb@x \hbox {\relax \fontsize {7}{8}\selectfont $\leftarrow \joinrel \rhook $}}{}{}Error()\hspace {0.1cm}{\relax \fontsize {8}{9.5}\selectfont \abovedisplayskip 6\p@ plus2\p@ minus4\p@ \abovedisplayshortskip \z@ plus\p@ \belowdisplayshortskip 3\p@ plus\p@ minus2\p@ \def \leftmargin \leftmargini \parsep 4\p@ plus2\p@ minus\p@ \topsep 8\p@ plus2\p@ minus4\p@ \itemsep 4\p@ plus2\p@ minus\p@ {\leftmargin \leftmargini \topsep 3\p@ plus\p@ minus\p@ \parsep 2\p@ plus\p@ minus\p@ \itemsep \parsep }\belowdisplayskip \abovedisplayskip \ttfamily [2/2]}}{25}{subsubsection.7.4.1.7}
\contentsline {subsubsection}{\numberline {7.4.1.8}load\discretionary {\unhbox \voidb@x \hbox {\relax \fontsize {7}{8}\selectfont $\leftarrow \joinrel \rhook $}}{}{}List()}{26}{subsubsection.7.4.1.8}
\contentsline {subsubsection}{\numberline {7.4.1.9}modify\discretionary {\unhbox \voidb@x \hbox {\relax \fontsize {7}{8}\selectfont $\leftarrow \joinrel \rhook $}}{}{}Description()}{26}{subsubsection.7.4.1.9}
\contentsline {subsubsection}{\numberline {7.4.1.10}modify\discretionary {\unhbox \voidb@x \hbox {\relax \fontsize {7}{8}\selectfont $\leftarrow \joinrel \rhook $}}{}{}Name()}{26}{subsubsection.7.4.1.10}
\contentsline {subsubsection}{\numberline {7.4.1.11}open\discretionary {\unhbox \voidb@x \hbox {\relax \fontsize {7}{8}\selectfont $\leftarrow \joinrel \rhook $}}{}{}Album()}{27}{subsubsection.7.4.1.11}
\contentsline {subsubsection}{\numberline {7.4.1.12}remove()}{27}{subsubsection.7.4.1.12}
\contentsline {subsubsection}{\numberline {7.4.1.13}remove\discretionary {\unhbox \voidb@x \hbox {\relax \fontsize {7}{8}\selectfont $\leftarrow \joinrel \rhook $}}{}{}All()}{28}{subsubsection.7.4.1.13}
\contentsline {subsubsection}{\numberline {7.4.1.14}search()}{28}{subsubsection.7.4.1.14}
\contentsline {subsubsection}{\numberline {7.4.1.15}set\discretionary {\unhbox \voidb@x \hbox {\relax \fontsize {7}{8}\selectfont $\leftarrow \joinrel \rhook $}}{}{}Element\discretionary {\unhbox \voidb@x \hbox {\relax \fontsize {7}{8}\selectfont $\leftarrow \joinrel \rhook $}}{}{}Index()}{28}{subsubsection.7.4.1.15}
\contentsline {section}{\numberline {7.5}c\discretionary {\unhbox \voidb@x \hbox {\relax \fontsize {7}{8}\selectfont $\leftarrow \joinrel \rhook $}}{}{}\_\discretionary {\unhbox \voidb@x \hbox {\relax \fontsize {7}{8}\selectfont $\leftarrow \joinrel \rhook $}}{}{}list\discretionary {\unhbox \voidb@x \hbox {\relax \fontsize {7}{8}\selectfont $\leftarrow \joinrel \rhook $}}{}{}Page Class Reference}{29}{section.7.5}
\contentsline {subsection}{\numberline {7.5.1}Member Function Documentation}{29}{subsection.7.5.1}
\contentsline {subsubsection}{\numberline {7.5.1.1}add()}{29}{subsubsection.7.5.1.1}
\contentsline {subsubsection}{\numberline {7.5.1.2}check\discretionary {\unhbox \voidb@x \hbox {\relax \fontsize {7}{8}\selectfont $\leftarrow \joinrel \rhook $}}{}{}If\discretionary {\unhbox \voidb@x \hbox {\relax \fontsize {7}{8}\selectfont $\leftarrow \joinrel \rhook $}}{}{}Exists()}{30}{subsubsection.7.5.1.2}
\contentsline {subsubsection}{\numberline {7.5.1.3}create()\hspace {0.1cm}{\relax \fontsize {8}{9.5}\selectfont \abovedisplayskip 6\p@ plus2\p@ minus4\p@ \abovedisplayshortskip \z@ plus\p@ \belowdisplayshortskip 3\p@ plus\p@ minus2\p@ \def \leftmargin \leftmargini \parsep 4\p@ plus2\p@ minus\p@ \topsep 8\p@ plus2\p@ minus4\p@ \itemsep 4\p@ plus2\p@ minus\p@ {\leftmargin \leftmargini \topsep 3\p@ plus\p@ minus\p@ \parsep 2\p@ plus\p@ minus\p@ \itemsep \parsep }\belowdisplayskip \abovedisplayskip \ttfamily [1/3]}}{30}{subsubsection.7.5.1.3}
\contentsline {subsubsection}{\numberline {7.5.1.4}create()\hspace {0.1cm}{\relax \fontsize {8}{9.5}\selectfont \abovedisplayskip 6\p@ plus2\p@ minus4\p@ \abovedisplayshortskip \z@ plus\p@ \belowdisplayshortskip 3\p@ plus\p@ minus2\p@ \def \leftmargin \leftmargini \parsep 4\p@ plus2\p@ minus\p@ \topsep 8\p@ plus2\p@ minus4\p@ \itemsep 4\p@ plus2\p@ minus\p@ {\leftmargin \leftmargini \topsep 3\p@ plus\p@ minus\p@ \parsep 2\p@ plus\p@ minus\p@ \itemsep \parsep }\belowdisplayskip \abovedisplayskip \ttfamily [2/3]}}{31}{subsubsection.7.5.1.4}
\contentsline {subsubsection}{\numberline {7.5.1.5}create()\hspace {0.1cm}{\relax \fontsize {8}{9.5}\selectfont \abovedisplayskip 6\p@ plus2\p@ minus4\p@ \abovedisplayshortskip \z@ plus\p@ \belowdisplayshortskip 3\p@ plus\p@ minus2\p@ \def \leftmargin \leftmargini \parsep 4\p@ plus2\p@ minus\p@ \topsep 8\p@ plus2\p@ minus4\p@ \itemsep 4\p@ plus2\p@ minus\p@ {\leftmargin \leftmargini \topsep 3\p@ plus\p@ minus\p@ \parsep 2\p@ plus\p@ minus\p@ \itemsep \parsep }\belowdisplayskip \abovedisplayskip \ttfamily [3/3]}}{31}{subsubsection.7.5.1.5}
\contentsline {subsubsection}{\numberline {7.5.1.6}debug\discretionary {\unhbox \voidb@x \hbox {\relax \fontsize {7}{8}\selectfont $\leftarrow \joinrel \rhook $}}{}{}Print()}{32}{subsubsection.7.5.1.6}
\contentsline {subsubsection}{\numberline {7.5.1.7}get\discretionary {\unhbox \voidb@x \hbox {\relax \fontsize {7}{8}\selectfont $\leftarrow \joinrel \rhook $}}{}{}Page()\hspace {0.1cm}{\relax \fontsize {8}{9.5}\selectfont \abovedisplayskip 6\p@ plus2\p@ minus4\p@ \abovedisplayshortskip \z@ plus\p@ \belowdisplayshortskip 3\p@ plus\p@ minus2\p@ \def \leftmargin \leftmargini \parsep 4\p@ plus2\p@ minus\p@ \topsep 8\p@ plus2\p@ minus4\p@ \itemsep 4\p@ plus2\p@ minus\p@ {\leftmargin \leftmargini \topsep 3\p@ plus\p@ minus\p@ \parsep 2\p@ plus\p@ minus\p@ \itemsep \parsep }\belowdisplayskip \abovedisplayskip \ttfamily [1/2]}}{32}{subsubsection.7.5.1.7}
\contentsline {subsubsection}{\numberline {7.5.1.8}get\discretionary {\unhbox \voidb@x \hbox {\relax \fontsize {7}{8}\selectfont $\leftarrow \joinrel \rhook $}}{}{}Page()\hspace {0.1cm}{\relax \fontsize {8}{9.5}\selectfont \abovedisplayskip 6\p@ plus2\p@ minus4\p@ \abovedisplayshortskip \z@ plus\p@ \belowdisplayshortskip 3\p@ plus\p@ minus2\p@ \def \leftmargin \leftmargini \parsep 4\p@ plus2\p@ minus\p@ \topsep 8\p@ plus2\p@ minus4\p@ \itemsep 4\p@ plus2\p@ minus\p@ {\leftmargin \leftmargini \topsep 3\p@ plus\p@ minus\p@ \parsep 2\p@ plus\p@ minus\p@ \itemsep \parsep }\belowdisplayskip \abovedisplayskip \ttfamily [2/2]}}{32}{subsubsection.7.5.1.8}
\contentsline {subsubsection}{\numberline {7.5.1.9}load\discretionary {\unhbox \voidb@x \hbox {\relax \fontsize {7}{8}\selectfont $\leftarrow \joinrel \rhook $}}{}{}List()}{32}{subsubsection.7.5.1.9}
\contentsline {subsubsection}{\numberline {7.5.1.10}open\discretionary {\unhbox \voidb@x \hbox {\relax \fontsize {7}{8}\selectfont $\leftarrow \joinrel \rhook $}}{}{}Page()}{33}{subsubsection.7.5.1.10}
\contentsline {subsubsection}{\numberline {7.5.1.11}remove()}{33}{subsubsection.7.5.1.11}
\contentsline {subsubsection}{\numberline {7.5.1.12}remove\discretionary {\unhbox \voidb@x \hbox {\relax \fontsize {7}{8}\selectfont $\leftarrow \joinrel \rhook $}}{}{}All()}{33}{subsubsection.7.5.1.12}
\contentsline {subsubsection}{\numberline {7.5.1.13}search()}{33}{subsubsection.7.5.1.13}
\contentsline {subsubsection}{\numberline {7.5.1.14}set\discretionary {\unhbox \voidb@x \hbox {\relax \fontsize {7}{8}\selectfont $\leftarrow \joinrel \rhook $}}{}{}Element\discretionary {\unhbox \voidb@x \hbox {\relax \fontsize {7}{8}\selectfont $\leftarrow \joinrel \rhook $}}{}{}Index()}{34}{subsubsection.7.5.1.14}
\contentsline {section}{\numberline {7.6}c\discretionary {\unhbox \voidb@x \hbox {\relax \fontsize {7}{8}\selectfont $\leftarrow \joinrel \rhook $}}{}{}\_\discretionary {\unhbox \voidb@x \hbox {\relax \fontsize {7}{8}\selectfont $\leftarrow \joinrel \rhook $}}{}{}list\discretionary {\unhbox \voidb@x \hbox {\relax \fontsize {7}{8}\selectfont $\leftarrow \joinrel \rhook $}}{}{}People Class Reference}{34}{section.7.6}
\contentsline {subsection}{\numberline {7.6.1}Member Function Documentation}{35}{subsection.7.6.1}
\contentsline {subsubsection}{\numberline {7.6.1.1}add()}{35}{subsubsection.7.6.1.1}
\contentsline {subsubsection}{\numberline {7.6.1.2}create()}{35}{subsubsection.7.6.1.2}
\contentsline {subsubsection}{\numberline {7.6.1.3}debug\discretionary {\unhbox \voidb@x \hbox {\relax \fontsize {7}{8}\selectfont $\leftarrow \joinrel \rhook $}}{}{}Print()}{36}{subsubsection.7.6.1.3}
\contentsline {subsubsection}{\numberline {7.6.1.4}get\discretionary {\unhbox \voidb@x \hbox {\relax \fontsize {7}{8}\selectfont $\leftarrow \joinrel \rhook $}}{}{}Error()}{36}{subsubsection.7.6.1.4}
\contentsline {subsubsection}{\numberline {7.6.1.5}load\discretionary {\unhbox \voidb@x \hbox {\relax \fontsize {7}{8}\selectfont $\leftarrow \joinrel \rhook $}}{}{}List()}{36}{subsubsection.7.6.1.5}
\contentsline {subsubsection}{\numberline {7.6.1.6}modify\discretionary {\unhbox \voidb@x \hbox {\relax \fontsize {7}{8}\selectfont $\leftarrow \joinrel \rhook $}}{}{}Name()}{36}{subsubsection.7.6.1.6}
\contentsline {subsubsection}{\numberline {7.6.1.7}remove()}{37}{subsubsection.7.6.1.7}
\contentsline {subsubsection}{\numberline {7.6.1.8}removeall()}{37}{subsubsection.7.6.1.8}
\contentsline {subsubsection}{\numberline {7.6.1.9}search()}{37}{subsubsection.7.6.1.9}
\contentsline {section}{\numberline {7.7}c\discretionary {\unhbox \voidb@x \hbox {\relax \fontsize {7}{8}\selectfont $\leftarrow \joinrel \rhook $}}{}{}\_\discretionary {\unhbox \voidb@x \hbox {\relax \fontsize {7}{8}\selectfont $\leftarrow \joinrel \rhook $}}{}{}list\discretionary {\unhbox \voidb@x \hbox {\relax \fontsize {7}{8}\selectfont $\leftarrow \joinrel \rhook $}}{}{}Photo Class Reference}{38}{section.7.7}
\contentsline {subsection}{\numberline {7.7.1}Member Function Documentation}{38}{subsection.7.7.1}
\contentsline {subsubsection}{\numberline {7.7.1.1}add()}{38}{subsubsection.7.7.1.1}
\contentsline {subsubsection}{\numberline {7.7.1.2}check\discretionary {\unhbox \voidb@x \hbox {\relax \fontsize {7}{8}\selectfont $\leftarrow \joinrel \rhook $}}{}{}If\discretionary {\unhbox \voidb@x \hbox {\relax \fontsize {7}{8}\selectfont $\leftarrow \joinrel \rhook $}}{}{}Exists()}{39}{subsubsection.7.7.1.2}
\contentsline {subsubsection}{\numberline {7.7.1.3}create()}{39}{subsubsection.7.7.1.3}
\contentsline {subsubsection}{\numberline {7.7.1.4}debug\discretionary {\unhbox \voidb@x \hbox {\relax \fontsize {7}{8}\selectfont $\leftarrow \joinrel \rhook $}}{}{}Print()}{40}{subsubsection.7.7.1.4}
\contentsline {subsubsection}{\numberline {7.7.1.5}get\discretionary {\unhbox \voidb@x \hbox {\relax \fontsize {7}{8}\selectfont $\leftarrow \joinrel \rhook $}}{}{}Photo()\hspace {0.1cm}{\relax \fontsize {8}{9.5}\selectfont \abovedisplayskip 6\p@ plus2\p@ minus4\p@ \abovedisplayshortskip \z@ plus\p@ \belowdisplayshortskip 3\p@ plus\p@ minus2\p@ \def \leftmargin \leftmargini \parsep 4\p@ plus2\p@ minus\p@ \topsep 8\p@ plus2\p@ minus4\p@ \itemsep 4\p@ plus2\p@ minus\p@ {\leftmargin \leftmargini \topsep 3\p@ plus\p@ minus\p@ \parsep 2\p@ plus\p@ minus\p@ \itemsep \parsep }\belowdisplayskip \abovedisplayskip \ttfamily [1/2]}}{40}{subsubsection.7.7.1.5}
\contentsline {subsubsection}{\numberline {7.7.1.6}get\discretionary {\unhbox \voidb@x \hbox {\relax \fontsize {7}{8}\selectfont $\leftarrow \joinrel \rhook $}}{}{}Photo()\hspace {0.1cm}{\relax \fontsize {8}{9.5}\selectfont \abovedisplayskip 6\p@ plus2\p@ minus4\p@ \abovedisplayshortskip \z@ plus\p@ \belowdisplayshortskip 3\p@ plus\p@ minus2\p@ \def \leftmargin \leftmargini \parsep 4\p@ plus2\p@ minus\p@ \topsep 8\p@ plus2\p@ minus4\p@ \itemsep 4\p@ plus2\p@ minus\p@ {\leftmargin \leftmargini \topsep 3\p@ plus\p@ minus\p@ \parsep 2\p@ plus\p@ minus\p@ \itemsep \parsep }\belowdisplayskip \abovedisplayskip \ttfamily [2/2]}}{40}{subsubsection.7.7.1.6}
\contentsline {subsubsection}{\numberline {7.7.1.7}load\discretionary {\unhbox \voidb@x \hbox {\relax \fontsize {7}{8}\selectfont $\leftarrow \joinrel \rhook $}}{}{}List()}{40}{subsubsection.7.7.1.7}
\contentsline {subsubsection}{\numberline {7.7.1.8}remove()}{41}{subsubsection.7.7.1.8}
\contentsline {subsubsection}{\numberline {7.7.1.9}remove\discretionary {\unhbox \voidb@x \hbox {\relax \fontsize {7}{8}\selectfont $\leftarrow \joinrel \rhook $}}{}{}All()}{41}{subsubsection.7.7.1.9}
\contentsline {subsubsection}{\numberline {7.7.1.10}set\discretionary {\unhbox \voidb@x \hbox {\relax \fontsize {7}{8}\selectfont $\leftarrow \joinrel \rhook $}}{}{}Element\discretionary {\unhbox \voidb@x \hbox {\relax \fontsize {7}{8}\selectfont $\leftarrow \joinrel \rhook $}}{}{}Index()}{41}{subsubsection.7.7.1.10}
\contentsline {section}{\numberline {7.8}c\discretionary {\unhbox \voidb@x \hbox {\relax \fontsize {7}{8}\selectfont $\leftarrow \joinrel \rhook $}}{}{}\_\discretionary {\unhbox \voidb@x \hbox {\relax \fontsize {7}{8}\selectfont $\leftarrow \joinrel \rhook $}}{}{}main\discretionary {\unhbox \voidb@x \hbox {\relax \fontsize {7}{8}\selectfont $\leftarrow \joinrel \rhook $}}{}{}Window Class Reference}{42}{section.7.8}
\contentsline {section}{\numberline {7.9}c\discretionary {\unhbox \voidb@x \hbox {\relax \fontsize {7}{8}\selectfont $\leftarrow \joinrel \rhook $}}{}{}\_\discretionary {\unhbox \voidb@x \hbox {\relax \fontsize {7}{8}\selectfont $\leftarrow \joinrel \rhook $}}{}{}no\discretionary {\unhbox \voidb@x \hbox {\relax \fontsize {7}{8}\selectfont $\leftarrow \joinrel \rhook $}}{}{}Album Class Reference}{42}{section.7.9}
\contentsline {subsection}{\numberline {7.9.1}Member Function Documentation}{43}{subsection.7.9.1}
\contentsline {subsubsection}{\numberline {7.9.1.1}debug\discretionary {\unhbox \voidb@x \hbox {\relax \fontsize {7}{8}\selectfont $\leftarrow \joinrel \rhook $}}{}{}Print()}{43}{subsubsection.7.9.1.1}
\contentsline {subsubsection}{\numberline {7.9.1.2}operator=()}{43}{subsubsection.7.9.1.2}
\contentsline {section}{\numberline {7.10}c\discretionary {\unhbox \voidb@x \hbox {\relax \fontsize {7}{8}\selectfont $\leftarrow \joinrel \rhook $}}{}{}\_\discretionary {\unhbox \voidb@x \hbox {\relax \fontsize {7}{8}\selectfont $\leftarrow \joinrel \rhook $}}{}{}no\discretionary {\unhbox \voidb@x \hbox {\relax \fontsize {7}{8}\selectfont $\leftarrow \joinrel \rhook $}}{}{}Page Class Reference}{44}{section.7.10}
\contentsline {subsection}{\numberline {7.10.1}Member Function Documentation}{44}{subsection.7.10.1}
\contentsline {subsubsection}{\numberline {7.10.1.1}debug\discretionary {\unhbox \voidb@x \hbox {\relax \fontsize {7}{8}\selectfont $\leftarrow \joinrel \rhook $}}{}{}Print()}{44}{subsubsection.7.10.1.1}
\contentsline {subsubsection}{\numberline {7.10.1.2}operator=()}{44}{subsubsection.7.10.1.2}
\contentsline {section}{\numberline {7.11}c\discretionary {\unhbox \voidb@x \hbox {\relax \fontsize {7}{8}\selectfont $\leftarrow \joinrel \rhook $}}{}{}\_\discretionary {\unhbox \voidb@x \hbox {\relax \fontsize {7}{8}\selectfont $\leftarrow \joinrel \rhook $}}{}{}no\discretionary {\unhbox \voidb@x \hbox {\relax \fontsize {7}{8}\selectfont $\leftarrow \joinrel \rhook $}}{}{}People Class Reference}{45}{section.7.11}
\contentsline {subsection}{\numberline {7.11.1}Member Function Documentation}{45}{subsection.7.11.1}
\contentsline {subsubsection}{\numberline {7.11.1.1}debug\discretionary {\unhbox \voidb@x \hbox {\relax \fontsize {7}{8}\selectfont $\leftarrow \joinrel \rhook $}}{}{}Print()}{45}{subsubsection.7.11.1.1}
\contentsline {section}{\numberline {7.12}c\discretionary {\unhbox \voidb@x \hbox {\relax \fontsize {7}{8}\selectfont $\leftarrow \joinrel \rhook $}}{}{}\_\discretionary {\unhbox \voidb@x \hbox {\relax \fontsize {7}{8}\selectfont $\leftarrow \joinrel \rhook $}}{}{}no\discretionary {\unhbox \voidb@x \hbox {\relax \fontsize {7}{8}\selectfont $\leftarrow \joinrel \rhook $}}{}{}Photo Class Reference}{46}{section.7.12}
\contentsline {subsection}{\numberline {7.12.1}Member Function Documentation}{46}{subsection.7.12.1}
\contentsline {subsubsection}{\numberline {7.12.1.1}add()}{46}{subsubsection.7.12.1.1}
\contentsline {subsubsection}{\numberline {7.12.1.2}debug\discretionary {\unhbox \voidb@x \hbox {\relax \fontsize {7}{8}\selectfont $\leftarrow \joinrel \rhook $}}{}{}Print()}{46}{subsubsection.7.12.1.2}
\contentsline {subsubsection}{\numberline {7.12.1.3}operator=()}{47}{subsubsection.7.12.1.3}
\contentsline {subsubsection}{\numberline {7.12.1.4}remove()}{47}{subsubsection.7.12.1.4}
\contentsline {section}{\numberline {7.13}image Class Reference}{48}{section.7.13}
\contentsline {section}{\numberline {7.14}s\discretionary {\unhbox \voidb@x \hbox {\relax \fontsize {7}{8}\selectfont $\leftarrow \joinrel \rhook $}}{}{}\_\discretionary {\unhbox \voidb@x \hbox {\relax \fontsize {7}{8}\selectfont $\leftarrow \joinrel \rhook $}}{}{}resolution Struct Reference}{48}{section.7.14}
\contentsline {chapter}{\numberline {8}File Documentation}{49}{chapter.8}
\contentsline {section}{\numberline {8.1}test\discretionary {\unhbox \voidb@x \hbox {\relax \fontsize {7}{8}\selectfont $\leftarrow \joinrel \rhook $}}{}{}Ficheiros/album.cpp File Reference}{49}{section.8.1}
\contentsline {subsection}{\numberline {8.1.1}Detailed Description}{49}{subsection.8.1.1}
\contentsline {section}{\numberline {8.2}test\discretionary {\unhbox \voidb@x \hbox {\relax \fontsize {7}{8}\selectfont $\leftarrow \joinrel \rhook $}}{}{}Ficheiros/date.cpp File Reference}{49}{section.8.2}
\contentsline {subsection}{\numberline {8.2.1}Detailed Description}{49}{subsection.8.2.1}
\contentsline {section}{\numberline {8.3}test\discretionary {\unhbox \voidb@x \hbox {\relax \fontsize {7}{8}\selectfont $\leftarrow \joinrel \rhook $}}{}{}Ficheiros/file.cpp File Reference}{50}{section.8.3}
\contentsline {subsection}{\numberline {8.3.1}Detailed Description}{50}{subsection.8.3.1}
\contentsline {section}{\numberline {8.4}test\discretionary {\unhbox \voidb@x \hbox {\relax \fontsize {7}{8}\selectfont $\leftarrow \joinrel \rhook $}}{}{}Ficheiros/page.cpp File Reference}{50}{section.8.4}
\contentsline {subsection}{\numberline {8.4.1}Detailed Description}{50}{subsection.8.4.1}
\contentsline {section}{\numberline {8.5}test\discretionary {\unhbox \voidb@x \hbox {\relax \fontsize {7}{8}\selectfont $\leftarrow \joinrel \rhook $}}{}{}Ficheiros/people.cpp File Reference}{50}{section.8.5}
\contentsline {subsection}{\numberline {8.5.1}Detailed Description}{51}{subsection.8.5.1}
\contentsline {section}{\numberline {8.6}test\discretionary {\unhbox \voidb@x \hbox {\relax \fontsize {7}{8}\selectfont $\leftarrow \joinrel \rhook $}}{}{}Ficheiros/photo.cpp File Reference}{51}{section.8.6}
\contentsline {subsection}{\numberline {8.6.1}Detailed Description}{51}{subsection.8.6.1}
